{
  "project_info": {
    "project_number": "731960349723",
    "firebase_url": "https://test-18a54.firebaseio.com",
    "project_id": "test-18a54",
    "storage_bucket": "test-18a54.appspot.com"
  },
  "client": [
    {
      "client_info": {
        "mobilesdk_app_id": "1:731960349723:android:17ddad2514b8de36",
        "android_client_info": {
          "package_name": "com.example.pushdemoapp"
        }
      },
      "oauth_client": [
        {
          "client_id": "731960349723-1405o24plq633udmne4jh3gi4fco6ada.apps.googleusercontent.com",
          "client_type": 3
        }
      ],
      "api_key": [
        {
          "current_key": "AIzaSyDqeNf105AE47tmvvVnuGOG0A7S3mgP6HA"
        }
      ],
      "services": {
        "appinvite_service": {
          "other_platform_oauth_client": [
            {
              "client_id": "731960349723-allf0e0ch684d8a3bq2kd7ncqliutlei.apps.googleusercontent.com",
              "client_type": 3
            }
          ]
        }
      }
    }
  ],
  "configuration_version": "1"
}